STA 225 2.0 Design and Analysis of Experiments
…
**Life (in hours) Data for the Battery Design Example** (Montgomery, 2004)

```r
library(tidyverse)
material_type <- factor(rep(1:3, each=12))
temperature <- factor(rep(c(15, 70, 125), each=4, times = 3))
life <- c(130, 155, 74, 180, 34, 40, 80, 75, 20, 70, 82, 58, 150, 188, 159, 126, 136, 122, 106, 115, 25, 70, 58, 45, 138, 110, 168, 160, 174, 120, 150, 139, 96, 104, 82, 60)
data <- tibble(material = material_type,
               temperature = temperature,
               life = life)
data
```

```
# A tibble: 36 × 3
   material temperature  life
   <fct>    <fct>       <dbl>
 1 1        15            130
 2 1        15            155
 3 1        15             74
 4 1        15            180
 5 1        70             34
 6 1        70             40
 7 1        70             80
 8 1        70             75
 9 1        125            20
10 1        125            70
# … with 26 more rows
```
…
