STA 225 2.0 Design and Analysis of Experiments
…
]

.pull-right[

```r
df <- df %>% pivot_longer(1:5, "Treatment",
                          "value")
df
```

```
# A tibble: 25 × 2
   Treatment value
   <chr>     <dbl>
 1 A             8
 2 B            11
 3 C            14
 4 D            20
 5 E             8
 6 A             8
 7 B            17
 8 C            16
 9 D            24
10 E            10
# … with 15 more rows
```
…
```
Warning: Tidiers for objects of class aov are not maintained by the broom team,
and are only supported through the lm tidier method. Please be cautious in
interpreting and reporting broom output.
```

```r
residdf
```

```
# A tibble: 25 × 8
   value Treatment .fitted .resid  .hat .sigma .cooksd .std.resid
   <dbl> <chr>       <dbl>  <dbl> <dbl>  <dbl>   <dbl>      <dbl>
 1     8 A            9.80  -1.80 0.200   2.78  0.0268     -0.732
 2    11 B           15.2   -4.20 0.200   2.61  0.146      -1.71 
 3    14 C           17.6   -3.60 0.2     2.67  0.107      -1.46 
 4    20 D           21.6   -1.60 0.2     2.79  0.0212     -0.651
 5     8 E           11.4   -3.40 0.2     2.68  0.0956     -1.38 
 6     8 A            9.80  -1.80 0.2     2.78  0.0268     -0.732
 7    17 B           15.2    1.80 0.2     2.78  0.0268      0.732
 8    16 C           17.6   -1.60 0.2     2.79  0.0212     -0.651
 9    24 D           21.6    2.40 0.2     2.75  0.0476      0.976
10    10 E           11.4   -1.40 0.2     2.80  0.0162     -0.569
# … with 15 more rows
```
…
---

# Plot of residuals in time sequence

This is helpful in detecting **correlation between residuals**. This is useful to check the validity of the independence assumption on the errors.

```r
residdf$Time <- 1:25
residdf
```

```
# A tibble: 25 × 9
   value Treatment .fitted .resid  .hat .sigma .cooksd .std.resid  Time
   <dbl> <chr>       <dbl>  <dbl> <dbl>  <dbl>   <dbl>      <dbl> <int>
 1     8 A            9.80  -1.80 0.200   2.78  0.0268     -0.732     1
 2    11 B           15.2   -4.20 0.200   2.61  0.146      -1.71      2
 3    14 C           17.6   -3.60 0.2     2.67  0.107      -1.46      3
 4    20 D           21.6   -1.60 0.2     2.79  0.0212     -0.651     4
 5     8 E           11.4   -3.40 0.2     2.68  0.0956     -1.38      5
 6     8 A            9.80  -1.80 0.2     2.78  0.0268     -0.732     6
 7    17 B           15.2    1.80 0.2     2.78  0.0268      0.732     7
 8    16 C           17.6   -1.60 0.2     2.79  0.0212     -0.651     8
 9    24 D           21.6    2.40 0.2     2.75  0.0476      0.976     9
10    10 E           11.4   -1.40 0.2     2.80  0.0162     -0.569    10
# … with 15 more rows
```
…
