STA 225 2.0 Design and Analysis of Experiments
…
**Life (in hours) Data for the Battery Design Example** (Montgomery, 2004)

```r
library(tidyverse)
material_type <- factor(rep(1:3, each=12))
temperature <- factor(rep(c(15, 70, 125), each=4, times = 3))
life <- c(130, 155, 74, 180, 34, 40, 80, 75, 20, 70, 82, 58, 150, 188, 159, 126, 136, 122, 106, 115, 25, 70, 58, 45, 138, 110, 168, 160, 174, 120, 150, 139, 96, 104, 82, 60)
data <- tibble(material = material_type,
               temperature = temperature,
               life = life)
data
```

```
# A tibble: 36 × 3
   material temperature  life
   <fct>    <fct>       <dbl>
 1 1        15            130
 2 1        15            155
 3 1        15             74
 4 1        15            180
 5 1        70             34
 6 1        70             40
 7 1        70             80
 8 1        70             75
 9 1        125            20
10 1        125            70
# … with 26 more rows
```
…
`$$SS_{AB} = SS_{Subtotals} - SS_A - SS_B$$`

`$$SS_E = SS_T - SS_{Subtotals}$$`

---

## Model Adequacy Checking

```r
resid_fit <- broom::augment(fit)
resid_fit
```

```
## # A tibble: 36 × 9
##     life temperature material .fitted .resid  .hat .sigma .cooksd .std.resid
##    <dbl> <fct>       <fct>      <dbl>  <dbl> <dbl>  <dbl>   <dbl>      <dbl>
##  1   130 15          1          135.   -4.75 0.250   26.5 0.00165     -0.211
##  2   155 15          1          135.   20.3  0.250   26.1 0.0300       0.900
##  3    74 15          1          135.  -60.7  0.250   22.6 0.270       -2.70 
##  4   180 15          1          135.   45.3  0.250   24.4 0.150        2.01 
##  5    34 70          1           57.2 -23.2  0.25    26.0 0.0395      -1.03 
##  6    40 70          1           57.2 -17.2  0.25    26.2 0.0218      -0.767
##  7    80 70          1           57.2  22.8  0.25    26.0 0.0379       1.01 
##  8    75 70          1           57.2  17.8  0.25    26.2 0.0230       0.789
##  9    20 125         1           57.5 -37.5  0.25    25.1 0.103       -1.67 
## 10    70 125         1           57.5  12.5  0.25    26.3 0.0114       0.555
## # … with 26 more rows
```
…
